analysis
…
    serve1_shot_type         = x5_1_serve_1_shot_shot_type,
    serve1_shot_category     = x5_2_serve_1_shot_shot_category,
    serve1_shot_direction    = x5_3_serve_1_shot_shot_direction,
    serve1_shot_hit_point    = x5_4_serve_1_shot_hitting_point,
    serve1_shot_depth        = x5_5_serve_1_shot_depth,

    cheap_point              = x6_1_cheap_point,
    disputable_point         = x7_1_disputable_point
  )

clean_data

# A tibble: 1,127 × 32
   match_id position duration score      ending_shot_marker winner rally_outcome
   <chr>       <dbl>    <dbl> <chr>                   <dbl> <chr>  <chr>        
 1 1              25       18 Set 1; 0:…               5008 Neil … Winner/Provo…
 2 1              90       13 Set 1; 0:…               5017 Neil … Unforced Err…
 3 1             141       10 Set 1; 0:…               5022 Neil … Unforced Err…
 4 1             182       13 Set 1; 0:…               5028 Aniru… Unforced Err…
 5 1             236        8 Set 1; 0:…               5033 Aniru… Unforced Err…
 6 1             282       21 Set 1; 0:…               5045 Neil … Winner/Provo…
 7 1             380        7 Set 1; 0:…               5049 Aniru… Unforced Err…
 8 1             424        5 Set 1; 0:…               5051 Neil … Unforced Err…
 9 1             442        8 Set 1; 0:…               5054 Neil … Unforced Err…
10 1             457       15 Set 1; 0:…               5062 Aniru… Winner/Provo…
# ℹ 1,117 more rows
# ℹ 25 more variables: rally_outcome_detail <chr>, rally_length <chr>,
#   rally_length_detail <dbl>, game_score_cond <chr>, set_score_cond <chr>,
#   ending_shot_type <chr>, ending_shot_category <chr>,
#   ending_shot_direction <chr>, ending_shot_hit_point <chr>,
#   ending_shot_depth <chr>, server <chr>, serve_order <chr>,
#   serve_direction <chr>, return_shot_type <chr>, …
…
